%YAML 1.1
%TAG !u! tag:unity3d.com,2011:
--- !u!114 &11400000
MonoBehaviour:
  m_ObjectHideFlags: 0
  m_PrefabParentObject: {fileID: 0}
  m_PrefabInternal: {fileID: 0}
  m_GameObject: {fileID: 0}
  m_Enabled: 1
  m_EditorHideFlags: 0
  m_Script: {fileID: 11500000, guid: a9f99d2f1c71a44eaa5242cf6d36152e, type: 3}
  m_Name: Flowfield
  m_EditorClassIdentifier: 
  vectorList:
  - position: {x: 0, y: 500}
    direction: {x: -0.5547002, y: 0.8320503}
  - position: {x: 0, y: 6000}
    direction: {x: -0.3162278, y: -0.9486833}
  - position: {x: 6000, y: 700}
    direction: {x: -0.8944272, y: 0.4472136}
  - position: {x: 5000, y: 1000}
    direction: {x: -0.9486833, y: 0.3162278}
  - position: {x: 4000, y: 1200}
    direction: {x: -0.97014254, y: 0.24253564}
  - position: {x: 1000, y: 2200}
    direction: {x: -1, y: 0}
  - position: {x: -1000, y: 2200}
    direction: {x: -5, y: -2}
  - position: {x: -3000, y: 1200}
    direction: {x: -5, y: 0}
  - position: {x: -5000, y: 1200}
    direction: {x: -5, y: -5}
