%YAML 1.1
%TAG !u! tag:unity3d.com,2011:
--- !u!114 &11400000
MonoBehaviour:
  m_ObjectHideFlags: 0
  m_PrefabParentObject: {fileID: 0}
  m_PrefabInternal: {fileID: 0}
  m_GameObject: {fileID: 0}
  m_Enabled: 1
  m_EditorHideFlags: 0
  m_Script: {fileID: 11500000, guid: cf3076362200f3e45bcc38948f1f690a, type: 3}
  m_Name: Old Warcardinal Imprint
  m_EditorClassIdentifier: 
  kitName: 
  attackHitTime: 1
  archetype: {fileID: 0}
  characterPassive: {fileID: 11400000, guid: 2deb5509c6d8d408ea98339a340e98f5, type: 2}
  firstBasicSkill: {fileID: 11400000, guid: b2dad84b3442b46e789840c891aa56d1, type: 2}
  secondBasicSkill: {fileID: 11400000, guid: 22953f186bc684f65a0e1b4ef407ebac, type: 2}
  thirdBasicSkill: {fileID: 11400000, guid: 9e36ed73e50ae45079a6f31d857a6ff1, type: 2}
  ultimateAbility: {fileID: 11400000, guid: 205d0fdc86e1f4278ad75beb97e56f9a, type: 2}
  convictionPreviousUnit: {fileID: 0}
  convictionDebuffDuration: 5
  convictionStunDuration: 0.65
  convictionImmunityDuration: 8
  convictionResourceGain: 1
  convictionEmpoweredResourceGain: 2
  excommunicateCooldown:
  - 10
  - 9
  - 8
  - 7
  - 6
  excommunicateRange: 525
  excommunicateMissileSpeed: 1000
  excommunicateProjectile: excommunicate_projectile
  excommunicateBaseDamage:
  - 1
  - 1
  - 1
  - 1
  - 1
  excommunicateDamagePowerScaling: 0.5
  excommunicateIsEmpowered: 0
  excommunicateDebuffDuration: 2.5
  excommunicateBaseSlowAmount:
  - 0.25
  - 0.3
  - 0.35
  - 0.4
  - 0.45
  excommmunicateSlowPowerScaling: 0.05
  excommunicateExtraSlowAmount: 0.2
  cardinalCallCooldown:
  - 1
  - 1
  - 1
  - 1
  - 1
  cardinalCallAoERadius: 325
  cardinalCallBaseRangeIncrease: 100
  cardinalCallShieldRangePowerScaling: 0.25
  cardinalCallShieldDuration: 3
  cardinalCallBaseShield:
  - 1
  - 1
  - 1
  - 1
  - 1
  cardinalCallPowerScaling: 0.5
  cardinalCallShieldReductionPercentage: 0.2
  cardinalCallMinimumShieldEffect:
  - 0.2
  - 0.3
  - 0.4
  - 0.5
  - 0.6
  cardinalCallIsEmpowered: 0
  sinbrandCooldown:
  - 1
  - 1
  - 1
  - 1
  - 1
  sinbrandRange: 450
  sinbrandBaseDamage:
  - 1
  - 1
  - 1
  - 1
  - 1
  sinbrandPowerScaling: 0.5
  sinbrandIsEmpowered: 0
  sinbrandDebuff: {fileID: 0}
  sinbrandDebuffDuration: 2
  sinbrandPercentDamageIncrease:
  - 0.04
  - 0.05
  - 0.06
  - 0.07
  - 0.08
  sinbrandEmpoweredDebuff: {fileID: 0}
  sinbrandEmpoweredDebuffDuration: 2
  sinbrandEmpoweredBoost: 30
  sinbrandMoveBoostDuration: 0.5
  fistofOurosCooldown:
  - 1
  - 1
  - 1
  fistofOurosRange: 375
  fistofOurosWidth: 250
  fistofOurosBaseDamage:
  - 300
  - 450
  - 600
  fistofOurosPowerScaling: 0.5
  fistofOurosKnockbackDistance: 150
  fistofOurosKnockbackHeight: 100
  fistofOurosKnockbackDuration: 0.5
  fistofOurosDebuff: {fileID: 0}
  fistofOurosStunDuration: 1.5
