%YAML 1.1
%TAG !u! tag:unity3d.com,2011:
--- !u!114 &11400000
MonoBehaviour:
  m_ObjectHideFlags: 0
  m_PrefabParentObject: {fileID: 0}
  m_PrefabInternal: {fileID: 0}
  m_GameObject: {fileID: 0}
  m_Enabled: 1
  m_EditorHideFlags: 0
  m_Script: {fileID: 11500000, guid: be2985c07042c44cd8f139fb29e839ab, type: 3}
  m_Name: Warcardinal
  m_EditorClassIdentifier: 
  kitName: lucan
  attackHitTime: 0.12
  passives:
  - {fileID: 11400000, guid: 2deb5509c6d8d408ea98339a340e98f5, type: 2}
  skills:
  - skill: {fileID: 11400000, guid: b2dad84b3442b46e789840c891aa56d1, type: 2}
    slot: 1
  - skill: {fileID: 11400000, guid: 22953f186bc684f65a0e1b4ef407ebac, type: 2}
    slot: 2
  - skill: {fileID: 11400000, guid: 9e36ed73e50ae45079a6f31d857a6ff1, type: 2}
    slot: 3
  - skill: {fileID: 11400000, guid: 205d0fdc86e1f4278ad75beb97e56f9a, type: 2}
    slot: 4
  resourceFrame: {fileID: 11400000, guid: 1ba70ec0d9ad94888a0bace0e6037630, type: 2}
  archetype: {fileID: 11400000, guid: 6c6e0dee852fa407c9848008b465b48c, type: 2}
  face: {fileID: 21300000, guid: ac941364d58c5ac4b89c41f6e0316ddb, type: 3}
