%YAML 1.1
%TAG !u! tag:unity3d.com,2011:
--- !u!114 &11400000
MonoBehaviour:
  m_ObjectHideFlags: 0
  m_PrefabParentObject: {fileID: 0}
  m_PrefabInternal: {fileID: 0}
  m_GameObject: {fileID: 0}
  m_Enabled: 1
  m_EditorHideFlags: 0
  m_Script: {fileID: 11500000, guid: 1fbf03c495d894a048bfff6983354550, type: 3}
  m_Name: Entropy
  m_EditorClassIdentifier: 
  Name: Entropy passive
  StatsByLevel: []
  Level: 1
  BasicAttackAnimationOverride: 
  DeathBehaviourOverride: 0
  Cooldowns:
  - 0
  Source: {fileID: 0}
  Target: {fileID: 0}
  Parent: {fileID: 0}
  StaticStats:
    Power: 0
    Haste: 0
    Mastery: 0
    Penetration: 0
    Lifedrain: 0
    Tenacity: 0
    BaseAttackTime: 0
    AttackRange: 0
    MaxHealth: 0
    HealthRegen: 0
    AutoAttackDamage: 0
    AttackSpeed: 0
    Armor: 0
    Resistance: 0
    CooldownReduction: 0
    BonusCriticalDamage: 0
    MovementSpeed: 0
    HephisaltBounty: 0
    ExperienceBounty: 0
  PercentileStaticStats:
    Power: 0
    Haste: 0
    Mastery: 0
    Penetration: 0
    Lifedrain: 0
    Tenacity: 0
    BaseAttackTime: 0
    AttackRange: 0
    MaxHealth: 0
    HealthRegen: 0
    AutoAttackDamage: 0
    AttackSpeed: 0
    Armor: 0
    Resistance: 0
    CooldownReduction: 0
    BonusCriticalDamage: 0
    MovementSpeed: 0
    HephisaltBounty: 0
    ExperienceBounty: 0
  MaximumStacks: 1
  NoMaxStacks: 0
  HolderIsStructure: 0
  IsAura: 0
  AuraRadius: 0
  EntropyBuffChargeCooldown: 5
  EntropySpeedBuffAmount: 60
  EntropySpeedBuffDuration: 0.75
  EntropySlowAmount: 60
  EntropySlowDuration: 0.75
  EntropyBuff: {fileID: 11400000, guid: 1f48d8c725aa94eea86a533b06a13e89, type: 2}
  EntropyBuffTick: {fileID: 11400000, guid: f39a8dda3ee8549f68cb1964afdfd04f, type: 2}
  EntropySpeedBuff: {fileID: 11400000, guid: 74180af8f40c74e1ea954f7430180eae, type: 2}
  EntropySlow: {fileID: 11400000, guid: 1353524a0afe44fa4b568f9cab420876, type: 2}
