%YAML 1.1
%TAG !u! tag:unity3d.com,2011:
--- !u!114 &11400000
MonoBehaviour:
  m_ObjectHideFlags: 0
  m_PrefabParentObject: {fileID: 0}
  m_PrefabInternal: {fileID: 0}
  m_GameObject: {fileID: 0}
  m_Enabled: 1
  m_EditorHideFlags: 0
  m_Script: {fileID: 11500000, guid: 5fffff2e862bc43eda84ff322cefd212, type: 3}
  m_Name: Prophecy Ranged Slow
  m_EditorClassIdentifier: 
  Name: Prophecy Slow
  StatsByLevel: []
  Level: 1
  BasicAttackAnimationOverride: 
  DeathBehaviourOverride: 0
  Cooldowns:
  - 0
  Source: {fileID: 0}
  Target: {fileID: 0}
  Parent: {fileID: 11400000, guid: 81e7efcb83301486a996ba87f724e88f, type: 2}
  StaticStats:
    Power: 0
    Haste: 0
    Mastery: 0
    Penetration: 0
    Lifedrain: 0
    Tenacity: 0
    BaseAttackTime: 0
    AttackRange: 0
    MaxHealth: 0
    HealthRegen: 0
    AutoAttackDamage: 0
    AttackSpeed: 0
    Armor: 0
    Resistance: 0
    CooldownReduction: 0
    BonusCriticalDamage: 0
    MovementSpeed: 0
    HephisaltBounty: 0
    ExperienceBounty: 0
  PercentileStaticStats:
    Power: 0
    Haste: 0
    Mastery: 0
    Penetration: 0
    Lifedrain: 0
    Tenacity: 0
    BaseAttackTime: 0
    AttackRange: 0
    MaxHealth: 0
    HealthRegen: 0
    AutoAttackDamage: 0
    AttackSpeed: 0
    Armor: 0
    Resistance: 0
    CooldownReduction: 0
    BonusCriticalDamage: 0
    MovementSpeed: 0
    HephisaltBounty: 0
    ExperienceBounty: 0
  MaximumStacks: 1
  NoMaxStacks: 0
  HolderIsStructure: 0
  IsAura: 0
  AuraRadius: 0
  DoNotRefreshOnStack: 0
  DropOffAltogether: 0
  AffectedByTenacity: 1
  Disables:
    NameOfStatus: Slow
    Movement: 0
    Casting: 0
    Cripple: 0
  fullDuration: 1
  initialSlowPercent: 25
  finalSlowPercent: 70
  isFlat: 0
  curve:
    serializedVersion: 2
    m_Curve:
    - serializedVersion: 2
      time: 0
      value: 0
      inSlope: 0
      outSlope: 0
      tangentMode: 0
    - serializedVersion: 2
      time: 0.75
      value: 1
      inSlope: 0
      outSlope: 0
      tangentMode: 1
    - serializedVersion: 2
      time: 1
      value: 1
      inSlope: 0
      outSlope: 0
      tangentMode: 0
    m_PreInfinity: 2
    m_PostInfinity: 2
    m_RotationOrder: 0
