%YAML 1.1
%TAG !u! tag:unity3d.com,2011:
--- !u!114 &11400000
MonoBehaviour:
  m_ObjectHideFlags: 0
  m_PrefabParentObject: {fileID: 0}
  m_PrefabInternal: {fileID: 0}
  m_GameObject: {fileID: 0}
  m_Enabled: 1
  m_EditorHideFlags: 0
  m_Script: {fileID: 11500000, guid: be2985c07042c44cd8f139fb29e839ab, type: 3}
  m_Name: Hunter
  m_EditorClassIdentifier: 
  kitName: 
  attackHitTime: 1
  archetype: {fileID: 0}
  characterPassive: {fileID: 0}
  firstBasicSkill: {fileID: 0}
  secondBasicSkill: {fileID: 0}
  thirdBasicSkill: {fileID: 0}
  ultimateAbility: {fileID: 0}
