%YAML 1.1
%TAG !u! tag:unity3d.com,2011:
--- !u!114 &11400000
MonoBehaviour:
  m_ObjectHideFlags: 0
  m_PrefabParentObject: {fileID: 0}
  m_PrefabInternal: {fileID: 0}
  m_GameObject: {fileID: 0}
  m_Enabled: 1
  m_EditorHideFlags: 0
  m_Script: {fileID: 11500000, guid: 8b5a4e9b9ccfb4cc1bd02a9e999ab36c, type: 3}
  m_Name: IntensiveStudyDebuff
  m_EditorClassIdentifier: 
  Name: intensive_study_debuff
  StatsByLevel: []
  Level: 1
  BasicAttackAnimationOverride: 
  DeathBehaviourOverride: 0
  Cooldowns:
  - 0
  Source: {fileID: 0}
  Target: {fileID: 0}
  Parent: {fileID: 11400000, guid: 9d328ca30926b46c98180d6da7da385a, type: 2}
  StaticStats:
    Power: 0
    Haste: 0
    Mastery: 0
    Penetration: 0
    Lifedrain: 0
    Tenacity: 0
    BaseAttackTime: 0
    AttackRange: 0
    MaxHealth: 0
    HealthRegen: 0
    AutoAttackDamage: 0
    AttackSpeed: 0
    Armor: 0
    Resistance: 0
    CooldownReduction: 0
    BonusCriticalDamage: 0
    MovementSpeed: 0
    HephisaltBounty: 0
    ExperienceBounty: 0
  PercentileStaticStats:
    Power: 0
    Haste: 0
    Mastery: 0
    Penetration: 0
    Lifedrain: 0
    Tenacity: 0
    BaseAttackTime: 0
    AttackRange: 0
    MaxHealth: 0
    HealthRegen: 0
    AutoAttackDamage: 0
    AttackSpeed: 0
    Armor: 0
    Resistance: 0
    CooldownReduction: 0
    BonusCriticalDamage: 0
    MovementSpeed: 0
    HephisaltBounty: 0
    ExperienceBounty: 0
  MaximumStacks: 1
  NoMaxStacks: 0
  HolderIsStructure: 0
  IsAura: 0
  AuraRadius: 0
  duration: 5
  AffectedByTenacity: 0
  DoNotRefreshOnStack: 0
  DropOffAltogether: 0
  intensiveStudyCooldown:
  - 1
  - 1
  - 1
  - 1
  - 1
  intensiveStudyDebuff: {fileID: 0}
  intensiveStudyDebuffDuration: 5
  intensiveStudyReducePower: 0
  intensiveStudyReapply: 0
  intensiveStudyPowerReduction:
  - 1
  - 1
  - 1
  - 1
  - 1
  intensiveStudyResistanceReduction:
  - 1
  - 1
  - 1
  - 1
  - 1
  intensiveStudyDebuffAmp: 2
  intensiveStudyReappDuration: 2.5
