%YAML 1.1
%TAG !u! tag:unity3d.com,2011:
--- !u!114 &11400000
MonoBehaviour:
  m_ObjectHideFlags: 0
  m_PrefabParentObject: {fileID: 0}
  m_PrefabInternal: {fileID: 0}
  m_GameObject: {fileID: 0}
  m_Enabled: 1
  m_EditorHideFlags: 0
  m_Script: {fileID: 11500000, guid: 41c01368ac3ab3d4e9ef60489df8bd56, type: 3}
  m_Name: Old Visionary Imprint
  m_EditorClassIdentifier: 
  kitName: 
  attackHitTime: 1
  archetype: {fileID: 0}
  characterPassive: {fileID: 11400000, guid: ef89f6ec0c323453ebf15431bff7f0ed, type: 2}
  firstBasicSkill: {fileID: 11400000, guid: 27b11faf2300d483ab1b8683b4ca5582, type: 2}
  secondBasicSkill: {fileID: 11400000, guid: 9d328ca30926b46c98180d6da7da385a, type: 2}
  thirdBasicSkill: {fileID: 11400000, guid: b77b9b712bea2404baa8af766b6d05c5, type: 2}
  ultimateAbility: {fileID: 11400000, guid: d244e6a418ac940f8adf8a892c0a9384, type: 2}
