%YAML 1.1
%TAG !u! tag:unity3d.com,2011:
--- !u!114 &11400000
MonoBehaviour:
  m_ObjectHideFlags: 0
  m_PrefabParentObject: {fileID: 0}
  m_PrefabInternal: {fileID: 0}
  m_GameObject: {fileID: 0}
  m_Enabled: 1
  m_EditorHideFlags: 0
  m_Script: {fileID: 0}
  m_Name: Unite And Conquer Buff
  m_EditorClassIdentifier: Assembly-CSharp:feature.kit:UniteAndConquerBuff
  Name: unite_and_conquer_buff
  StatsByLevel: []
  Level: 1
  NumberOfStacks: 1
  BasicAttackAnimationOverride: 
  DeathBehaviourOverride: 0
  CurrentCooldown: 0
  Cooldowns:
  - 0
  Source: {fileID: 0}
  Target: {fileID: 0}
  Parent: {fileID: 0}
  StaticStats:
    Power: 0
    Haste: 0
    Mastery: 0
    Penetration: 0
    Lifedrain: 0
    Tenacity: 0
    BaseAttackTime: 0
    AttackRange: 0
    MaxHealth: 0
    HealthRegen: 0
    AttackSpeed: 0
    AttackHitTime: 0.4
    AutoAttackDamage: 0
    Armor: 0
    Resistance: 0
    CooldownReduction: 0
    BonusCriticalDamage: 0
    MovementSpeed: 0
    HephisaltBounty: 0
    ExperienceBounty: 0
  PercentileStaticStats:
    Power: 0
    Haste: 0
    Mastery: 0
    Penetration: 0
    Lifedrain: 0
    Tenacity: 0
    BaseAttackTime: 0
    AttackRange: 0
    MaxHealth: 0
    HealthRegen: 0
    AttackSpeed: 0
    AttackHitTime: 0.4
    AutoAttackDamage: 0
    Armor: 0
    Resistance: 0
    CooldownReduction: 0
    BonusCriticalDamage: 0
    MovementSpeed: 0
    HephisaltBounty: 0
    ExperienceBounty: 0
  MaximumStacks: 1
  NoMaxStacks: 0
  HolderIsStructure: 0
  IsAura: 0
  AuraRadius: 0
  CurrentStacks: 0
  disabled: 0
  Refresh: 1
  DoNotRefreshOnStack: 0
  DropOffAltogether: 0
