%YAML 1.1
%TAG !u! tag:unity3d.com,2011:
--- !u!114 &11400000
MonoBehaviour:
  m_ObjectHideFlags: 0
  m_PrefabParentObject: {fileID: 0}
  m_PrefabInternal: {fileID: 0}
  m_GameObject: {fileID: 0}
  m_Enabled: 1
  m_EditorHideFlags: 0
  m_Script: {fileID: 11500000, guid: db9a6f2e2981f4c4fa76e240ece64006, type: 3}
  m_Name: RangedAssassin
  m_EditorClassIdentifier: 
  baseStats:
    Power: 0
    Haste: 0
    Mastery: 0
    Penetration: 0
    Lifedrain: 0
    Tenacity: 0
    BaseAttackTime: 1.5
    AttackRange: 350
    MaxHealth: 505
    HealthRegen: 1.4
    AutoAttackDamage: 56
    AttackSpeed: 0
    Armor: 0
    Resistance: 0
    CooldownReduction: 0
    BonusCriticalDamage: 0
    MovementSpeed: 385
    HephisaltBounty: 0
    ExperienceBounty: 0
  perLevelStats:
    Power: 0
    Haste: 0
    Mastery: 0
    Penetration: 0
    Lifedrain: 0
    Tenacity: 0
    BaseAttackTime: 0
    AttackRange: 0
    MaxHealth: 74
    HealthRegen: 0.12
    AutoAttackDamage: 2.7
    AttackSpeed: 2.5
    Armor: 0
    Resistance: 0
    CooldownReduction: 0
    BonusCriticalDamage: 0
    MovementSpeed: 0
    HephisaltBounty: 0
    ExperienceBounty: 0
  basicAttackDamagePerPower: 0.25
  attackSpeedPerHaste: 0.35
  cooldownReductionPerHaste: 0.5
