%YAML 1.1
%TAG !u! tag:unity3d.com,2011:
--- !u!114 &11400000
MonoBehaviour:
  m_ObjectHideFlags: 0
  m_PrefabParentObject: {fileID: 0}
  m_PrefabInternal: {fileID: 0}
  m_GameObject: {fileID: 0}
  m_Enabled: 1
  m_EditorHideFlags: 0
  m_Script: {fileID: 11500000, guid: 9f2713995bf39554b86934e556d2a1d3, type: 3}
  m_Name: Alvkhrets Honor
  m_EditorClassIdentifier: 
  Name: Alvkhres Honor
  Icon: {fileID: 21300000, guid: 88d35c4aebaea484d9921c9f34ef0c2c, type: 3}
  Level: 1
  BasicAttackAnimationOverride: 
  DeathBehaviourOverride: 0
  Cooldowns:
  - 140
  - 125
  - 110
  damage:
  - 125
  - 150
  - 175
  powerScaling: 0.4
  range: 800
  speed: 1000
  turnDuration: 200
  aHProjectile: Akvkhrets_Honor_projectile
  radius: 450
  teleTime: 0.5
  immunityBuff: {fileID: 11400000, guid: 7efe8766db4abaa48804f6cfc53cb654, type: 2}
