%YAML 1.1
%TAG !u! tag:unity3d.com,2011:
--- !u!114 &11400000
MonoBehaviour:
  m_ObjectHideFlags: 0
  m_PrefabParentObject: {fileID: 0}
  m_PrefabInternal: {fileID: 0}
  m_GameObject: {fileID: 0}
  m_Enabled: 1
  m_EditorHideFlags: 0
  m_Script: {fileID: 11500000, guid: 49e0c39cab0704613b4fa64f7cdfa8b0, type: 3}
  m_Name: Stoke Resource
  m_EditorClassIdentifier: 
  Name: Stoke
  MaxAmount: 100
  MinAmount: 0
  Color: {r: 0.98624605, g: 0.007120788, b: 0.027434189, a: 1}
