%YAML 1.1
%TAG !u! tag:unity3d.com,2011:
--- !u!114 &11400000
MonoBehaviour:
  m_ObjectHideFlags: 0
  m_PrefabParentObject: {fileID: 0}
  m_PrefabInternal: {fileID: 0}
  m_GameObject: {fileID: 0}
  m_Enabled: 1
  m_EditorHideFlags: 0
  m_Script: {fileID: 11500000, guid: 446ca55cfc1e97d4ab038edb65021a89, type: 3}
  m_Name: Breathtaker
  m_EditorClassIdentifier: 
  Name: Breathtaker
  Icon: {fileID: 21300000, guid: aacab07972b853c4d90df2a809930ff6, type: 3}
  Level: 1
  BasicAttackAnimationOverride: 
  DeathBehaviourOverride: 0
  Cooldowns:
  - 12
  - 11
  - 10
  - 9
  - 8
  range: 225
  damage:
  - 40
  - 65
  - 90
  - 110
  - 155
  powerScaling: 0.4
  percentBonusHealthDamage:
  - 0.08
  - 0.095
  - 0.11
  - 0.125
  - 0.14
  knockbackTime: 0.1
  knockbackDis: 100
  breathtakerSlow: {fileID: 11400000, guid: 90527041974fd084b82cde55656ab742, type: 2}
