%YAML 1.1
%TAG !u! tag:unity3d.com,2011:
--- !u!114 &11400000
MonoBehaviour:
  m_ObjectHideFlags: 0
  m_PrefabParentObject: {fileID: 0}
  m_PrefabInternal: {fileID: 0}
  m_GameObject: {fileID: 0}
  m_Enabled: 1
  m_EditorHideFlags: 0
  m_Script: {fileID: 11500000, guid: be2985c07042c44cd8f139fb29e839ab, type: 3}
  m_Name: Nomad
  m_EditorClassIdentifier: 
  kitName: Nomad
  attackHitTime: 0.3
  passives:
  - {fileID: 11400000, guid: 5d4bee5708bd7fa46bb5c6144867c23a, type: 2}
  skills:
  - skill: {fileID: 11400000, guid: 100e90ae8672571498938da7864cd63c, type: 2}
    slot: 1
  - skill: {fileID: 11400000, guid: 6087ac12c9b57624691c1a0a9fa12e7c, type: 2}
    slot: 2
  - skill: {fileID: 11400000, guid: 51621e536b23b894ab09259b96412451, type: 2}
    slot: 3
  - skill: {fileID: 11400000, guid: 76e19152f0a5cb74bb8df1b214818728, type: 2}
    slot: 4
  resource:
    Name: n/a
    Amount: 0
    MaxAmount: 0
    MinAmount: 0
    Color: {r: 0.3, g: 0.3, b: 0.3, a: 1}
  archetype: {fileID: 11400000, guid: b0e092b06bd3949e5af6fc00ceb8f821, type: 2}
  face: {fileID: 21300000, guid: ece6f4fd4c5210744801e8680c6a2d3e, type: 3}
