%YAML 1.1
%TAG !u! tag:unity3d.com,2011:
--- !u!114 &11400000
MonoBehaviour:
  m_ObjectHideFlags: 0
  m_PrefabParentObject: {fileID: 0}
  m_PrefabInternal: {fileID: 0}
  m_GameObject: {fileID: 0}
  m_Enabled: 1
  m_EditorHideFlags: 0
  m_Script: {fileID: 11500000, guid: 78cb4a382b8154e628e2f81e6e76d432, type: 3}
  m_Name: Ranged Minion Kit
  m_EditorClassIdentifier: 
  kitName: ranged minion kit
  attackHitTime: 0.15
