%YAML 1.1
%TAG !u! tag:unity3d.com,2011:
--- !u!114 &11400000
MonoBehaviour:
  m_ObjectHideFlags: 0
  m_PrefabParentObject: {fileID: 0}
  m_PrefabInternal: {fileID: 0}
  m_GameObject: {fileID: 0}
  m_Enabled: 1
  m_EditorHideFlags: 0
  m_Script: {fileID: 0}
  m_Name: Protection Passive
  m_EditorClassIdentifier: Assembly-CSharp:feature:ProtectionPassive
  Name: Protection Passive
  StatsByLevel: []
  Level: 1
  BasicAttackAnimationOverride: 
  DeathBehaviourOverride: 0
  Cooldowns:
  - 10
  Source: {fileID: 0}
  Target: {fileID: 0}
  Parent: {fileID: 0}
  StaticStats:
    Power: 0
    Haste: 0
    Mastery: 0
    Penetration: 0
    Lifedrain: 0
    Tenacity: 0
    BaseAttackTime: 0
    AttackRange: 0
    MaxHealth: 0
    HealthRegen: 0
    AutoAttackDamage: 0
    AttackSpeed: 0
    Armor: 0
    Resistance: 0
    CooldownReduction: 0
    BonusCriticalDamage: 0
    MovementSpeed: 0
    HephisaltBounty: 0
    ExperienceBounty: 0
  PercentileStaticStats:
    Power: 0
    Haste: 0
    Mastery: 0
    Penetration: 0
    Lifedrain: 0
    Tenacity: 0
    BaseAttackTime: 0
    AttackRange: 0
    MaxHealth: 0
    HealthRegen: 0
    AutoAttackDamage: 0
    AttackSpeed: 0
    Armor: 0
    Resistance: 0
    CooldownReduction: 0
    BonusCriticalDamage: 0
    MovementSpeed: 0
    HephisaltBounty: 0
    ExperienceBounty: 0
  MaximumStacks: 1
  NoMaxStacks: 1
  HolderIsStructure: 0
  IsAura: 0
  AuraRadius: 0
  ArmorBuff: {fileID: 11400000, guid: 4fa150319ffee4e5f8e87f3d472ef96f, type: 2}
  ResistanceBuff: {fileID: 11400000, guid: 67faec0a9a9d344cb839216163b2fc75, type: 2}
