%YAML 1.1
%TAG !u! tag:unity3d.com,2011:
--- !u!114 &11400000
MonoBehaviour:
  m_ObjectHideFlags: 0
  m_PrefabParentObject: {fileID: 0}
  m_PrefabInternal: {fileID: 0}
  m_GameObject: {fileID: 0}
  m_Enabled: 1
  m_EditorHideFlags: 0
  m_Script: {fileID: 11500000, guid: 37306384918fe4b1c9c5bf3349b34b61, type: 3}
  m_Name: Desire
  m_EditorClassIdentifier: 
  Name: Desire
  Tier: 2
  Cost: 1200
  icon: {fileID: 21300000, guid: 0e86f93a74b209c40bea87444f69afe3, type: 3}
  Parent:
  - 
  BuildsFrom:
  - {fileID: 11400000, guid: 527e01e825a214a57a4463ec4a171cb9, type: 2}
  Child:
  - 
  - 
  BuildsInto: []
  PassiveName: 
  PassiveDesc: "Stackable: Your basic attacks grant you a stack of <heal thing> for
    3 seconds, \nup to a maximum of 3. Your basic attacks to deal 5 bonus physical
    damage per stack.  You heal for 30% of the bonus damage. The healing is halved
    for ranged forgers.\n"
  isFirstInstance: 1
  additionalStacks: 0
  ListStats: 0200000009000000
  StaticItemStats:
    Power: 0
    Haste: 0
    Mastery: 0
    Penetration: 0
    Lifedrain: 5
    Tenacity: 0
    BaseAttackTime: 0
    AttackRange: 0
    MaxHealth: 0
    HealthRegen: 0
    AutoAttackDamage: 0
    AttackSpeed: 0
    Armor: 25
    Resistance: 0
    CooldownReduction: 0
    BonusCriticalDamage: 0
    MovementSpeed: 0
    HephisaltBounty: 0
    ExperienceBounty: 0
  PercentItemStats:
    Power: 0
    Haste: 0
    Mastery: 0
    Penetration: 0
    Lifedrain: 0
    Tenacity: 0
    BaseAttackTime: 0
    AttackRange: 0
    MaxHealth: 0
    HealthRegen: 0
    AutoAttackDamage: 0
    AttackSpeed: 0
    Armor: 0
    Resistance: 0
    CooldownReduction: 0
    BonusCriticalDamage: 0
    MovementSpeed: 0
    HephisaltBounty: 0
    ExperienceBounty: 0
  UniquePassive: {fileID: 0}
  StackablePassive: {fileID: 0}
